{
  "project_info": {
    "project_number": "920574128678",
    "firebase_url": "https://egemathhelper.firebaseio.com",
    "project_id": "egemathhelper",
    "storage_bucket": "egemathhelper.appspot.com"
  },
  "client": [
    {
      "client_info": {
        "mobilesdk_app_id": "1:920574128678:android:7f59cf07a161592b",
        "android_client_info": {
          "package_name": "com.andreimironov.egemathhelper"
        }
      },
      "oauth_client": [
        {
          "client_id": "920574128678-29g3gdrhnuosfuc9in28ksd9cdo5bbcu.apps.googleusercontent.com",
          "client_type": 1,
          "android_info": {
            "package_name": "com.andreimironov.egemathhelper",
            "certificate_hash": "3810f36ecd89e6a21e8fa37a5c23c4a28f5396f7"
          }
        },
        {
          "client_id": "920574128678-5tfapoi5cnq72f96lu1eno5n2mgd25fg.apps.googleusercontent.com",
          "client_type": 3
        }
      ],
      "api_key": [
        {
          "current_key": "AIzaSyABI1_rpRgtrd42hyhO0WxHYjH7sHtyAKg"
        }
      ],
      "services": {
        "analytics_service": {
          "status": 1
        },
        "appinvite_service": {
          "status": 2,
          "other_platform_oauth_client": [
            {
              "client_id": "920574128678-5tfapoi5cnq72f96lu1eno5n2mgd25fg.apps.googleusercontent.com",
              "client_type": 3
            }
          ]
        },
        "ads_service": {
          "status": 2
        }
      }
    }
  ],
  "configuration_version": "1"
}